simulation/qsim/Clock.msim.vcd
$comment
	File created using the following command:
		vcd file Clock.msim.vcd -direction
$end
$date
	Tue Oct 10 07:40:31 2017
$end
$version
	ModelSim Version 10.5b
$end
$timescale
	1ps
$end

$scope module fluxodados_vhd_vec_tst $end
$var wire 1 ! CLK $end
$var wire 1 " OUT_DEMUX_SEL [2] $end
$var wire 1 # OUT_DEMUX_SEL [1] $end
$var wire 1 $ OUT_DEMUX_SEL [0] $end
$var wire 1 % OUT_R0 [3] $end
$var wire 1 & OUT_R0 [2] $end
$var wire 1 ' OUT_R0 [1] $end
$var wire 1 ( OUT_R0 [0] $end
$var wire 1 ) OUT_R1 [3] $end
$var wire 1 * OUT_R1 [2] $end
$var wire 1 + OUT_R1 [1] $end
$var wire 1 , OUT_R1 [0] $end
$var wire 1 - OUT_R2 [3] $end
$var wire 1 . OUT_R2 [2] $end
$var wire 1 / OUT_R2 [1] $end
$var wire 1 0 OUT_R2 [0] $end
$var wire 1 1 OUT_R3 [3] $end
$var wire 1 2 OUT_R3 [2] $end
$var wire 1 3 OUT_R3 [1] $end
$var wire 1 4 OUT_R3 [0] $end
$var wire 1 5 OUT_R4 [3] $end
$var wire 1 6 OUT_R4 [2] $end
$var wire 1 7 OUT_R4 [1] $end
$var wire 1 8 OUT_R4 [0] $end
$var wire 1 9 OUT_R5 [3] $end
$var wire 1 : OUT_R5 [2] $end
$var wire 1 ; OUT_R5 [1] $end
$var wire 1 < OUT_R5 [0] $end
$var wire 1 = REG_ENABLE [5] $end
$var wire 1 > REG_ENABLE [4] $end
$var wire 1 ? REG_ENABLE [3] $end
$var wire 1 @ REG_ENABLE [2] $end
$var wire 1 A REG_ENABLE [1] $end
$var wire 1 B REG_ENABLE [0] $end
$var wire 1 C REG_RESET [5] $end
$var wire 1 D REG_RESET [4] $end
$var wire 1 E REG_RESET [3] $end
$var wire 1 F REG_RESET [2] $end
$var wire 1 G REG_RESET [1] $end
$var wire 1 H REG_RESET [0] $end
$var wire 1 I SEL_MUX_DEMUX [2] $end
$var wire 1 J SEL_MUX_DEMUX [1] $end
$var wire 1 K SEL_MUX_DEMUX [0] $end
$var wire 1 L SEL_ULA $end

$scope module i1 $end
$var wire 1 M gnd $end
$var wire 1 N vcc $end
$var wire 1 O unknown $end
$var wire 1 P devoe $end
$var wire 1 Q devclrn $end
$var wire 1 R devpor $end
$var wire 1 S ww_devoe $end
$var wire 1 T ww_devclrn $end
$var wire 1 U ww_devpor $end
$var wire 1 V ww_SEL_MUX_DEMUX [2] $end
$var wire 1 W ww_SEL_MUX_DEMUX [1] $end
$var wire 1 X ww_SEL_MUX_DEMUX [0] $end
$var wire 1 Y ww_SEL_ULA $end
$var wire 1 Z ww_REG_ENABLE [5] $end
$var wire 1 [ ww_REG_ENABLE [4] $end
$var wire 1 \ ww_REG_ENABLE [3] $end
$var wire 1 ] ww_REG_ENABLE [2] $end
$var wire 1 ^ ww_REG_ENABLE [1] $end
$var wire 1 _ ww_REG_ENABLE [0] $end
$var wire 1 ` ww_REG_RESET [5] $end
$var wire 1 a ww_REG_RESET [4] $end
$var wire 1 b ww_REG_RESET [3] $end
$var wire 1 c ww_REG_RESET [2] $end
$var wire 1 d ww_REG_RESET [1] $end
$var wire 1 e ww_REG_RESET [0] $end
$var wire 1 f ww_CLK $end
$var wire 1 g ww_OUT_R0 [3] $end
$var wire 1 h ww_OUT_R0 [2] $end
$var wire 1 i ww_OUT_R0 [1] $end
$var wire 1 j ww_OUT_R0 [0] $end
$var wire 1 k ww_OUT_R1 [3] $end
$var wire 1 l ww_OUT_R1 [2] $end
$var wire 1 m ww_OUT_R1 [1] $end
$var wire 1 n ww_OUT_R1 [0] $end
$var wire 1 o ww_OUT_R2 [3] $end
$var wire 1 p ww_OUT_R2 [2] $end
$var wire 1 q ww_OUT_R2 [1] $end
$var wire 1 r ww_OUT_R2 [0] $end
$var wire 1 s ww_OUT_R3 [3] $end
$var wire 1 t ww_OUT_R3 [2] $end
$var wire 1 u ww_OUT_R3 [1] $end
$var wire 1 v ww_OUT_R3 [0] $end
$var wire 1 w ww_OUT_R4 [3] $end
$var wire 1 x ww_OUT_R4 [2] $end
$var wire 1 y ww_OUT_R4 [1] $end
$var wire 1 z ww_OUT_R4 [0] $end
$var wire 1 { ww_OUT_R5 [3] $end
$var wire 1 | ww_OUT_R5 [2] $end
$var wire 1 } ww_OUT_R5 [1] $end
$var wire 1 ~ ww_OUT_R5 [0] $end
$var wire 1 !! ww_OUT_DEMUX_SEL [2] $end
$var wire 1 "! ww_OUT_DEMUX_SEL [1] $end
$var wire 1 #! ww_OUT_DEMUX_SEL [0] $end
$var wire 1 $! \REG_RESET[0]~inputclkctrl_INCLK_bus\ [3] $end
$var wire 1 %! \REG_RESET[0]~inputclkctrl_INCLK_bus\ [2] $end
$var wire 1 &! \REG_RESET[0]~inputclkctrl_INCLK_bus\ [1] $end
$var wire 1 '! \REG_RESET[0]~inputclkctrl_INCLK_bus\ [0] $end
$var wire 1 (! \REG_RESET[1]~inputclkctrl_INCLK_bus\ [3] $end
$var wire 1 )! \REG_RESET[1]~inputclkctrl_INCLK_bus\ [2] $end
$var wire 1 *! \REG_RESET[1]~inputclkctrl_INCLK_bus\ [1] $end
$var wire 1 +! \REG_RESET[1]~inputclkctrl_INCLK_bus\ [0] $end
$var wire 1 ,! \CLK~inputclkctrl_INCLK_bus\ [3] $end
$var wire 1 -! \CLK~inputclkctrl_INCLK_bus\ [2] $end
$var wire 1 .! \CLK~inputclkctrl_INCLK_bus\ [1] $end
$var wire 1 /! \CLK~inputclkctrl_INCLK_bus\ [0] $end
$var wire 1 0! \REG_RESET[5]~inputclkctrl_INCLK_bus\ [3] $end
$var wire 1 1! \REG_RESET[5]~inputclkctrl_INCLK_bus\ [2] $end
$var wire 1 2! \REG_RESET[5]~inputclkctrl_INCLK_bus\ [1] $end
$var wire 1 3! \REG_RESET[5]~inputclkctrl_INCLK_bus\ [0] $end
$var wire 1 4! \REG_RESET[2]~inputclkctrl_INCLK_bus\ [3] $end
$var wire 1 5! \REG_RESET[2]~inputclkctrl_INCLK_bus\ [2] $end
$var wire 1 6! \REG_RESET[2]~inputclkctrl_INCLK_bus\ [1] $end
$var wire 1 7! \REG_RESET[2]~inputclkctrl_INCLK_bus\ [0] $end
$var wire 1 8! \REG_RESET[3]~inputclkctrl_INCLK_bus\ [3] $end
$var wire 1 9! \REG_RESET[3]~inputclkctrl_INCLK_bus\ [2] $end
$var wire 1 :! \REG_RESET[3]~inputclkctrl_INCLK_bus\ [1] $end
$var wire 1 ;! \REG_RESET[3]~inputclkctrl_INCLK_bus\ [0] $end
$var wire 1 <! \REG_RESET[4]~inputclkctrl_INCLK_bus\ [3] $end
$var wire 1 =! \REG_RESET[4]~inputclkctrl_INCLK_bus\ [2] $end
$var wire 1 >! \REG_RESET[4]~inputclkctrl_INCLK_bus\ [1] $end
$var wire 1 ?! \REG_RESET[4]~inputclkctrl_INCLK_bus\ [0] $end
$var wire 1 @! \OUT_R0[0]~output_o\ $end
$var wire 1 A! \OUT_R0[1]~output_o\ $end
$var wire 1 B! \OUT_R0[2]~output_o\ $end
$var wire 1 C! \OUT_R0[3]~output_o\ $end
$var wire 1 D! \OUT_R1[0]~output_o\ $end
$var wire 1 E! \OUT_R1[1]~output_o\ $end
$var wire 1 F! \OUT_R1[2]~output_o\ $end
$var wire 1 G! \OUT_R1[3]~output_o\ $end
$var wire 1 H! \OUT_R2[0]~output_o\ $end
$var wire 1 I! \OUT_R2[1]~output_o\ $end
$var wire 1 J! \OUT_R2[2]~output_o\ $end
$var wire 1 K! \OUT_R2[3]~output_o\ $end
$var wire 1 L! \OUT_R3[0]~output_o\ $end
$var wire 1 M! \OUT_R3[1]~output_o\ $end
$var wire 1 N! \OUT_R3[2]~output_o\ $end
$var wire 1 O! \OUT_R3[3]~output_o\ $end
$var wire 1 P! \OUT_R4[0]~output_o\ $end
$var wire 1 Q! \OUT_R4[1]~output_o\ $end
$var wire 1 R! \OUT_R4[2]~output_o\ $end
$var wire 1 S! \OUT_R4[3]~output_o\ $end
$var wire 1 T! \OUT_R5[0]~output_o\ $end
$var wire 1 U! \OUT_R5[1]~output_o\ $end
$var wire 1 V! \OUT_R5[2]~output_o\ $end
$var wire 1 W! \OUT_R5[3]~output_o\ $end
$var wire 1 X! \OUT_DEMUX_SEL[0]~output_o\ $end
$var wire 1 Y! \OUT_DEMUX_SEL[1]~output_o\ $end
$var wire 1 Z! \OUT_DEMUX_SEL[2]~output_o\ $end
$var wire 1 [! \CLK~input_o\ $end
$var wire 1 \! \CLK~inputclkctrl_outclk\ $end
$var wire 1 ]! \SEL_MUX_DEMUX[2]~input_o\ $end
$var wire 1 ^! \SEL_MUX_DEMUX[0]~input_o\ $end
$var wire 1 _! \SEL_MUX_DEMUX[1]~input_o\ $end
$var wire 1 `! \REG_RESET[4]~input_o\ $end
$var wire 1 a! \REG_RESET[4]~inputclkctrl_outclk\ $end
$var wire 1 b! \REG_ENABLE[4]~input_o\ $end
$var wire 1 c! \R4|q[0]~_Duplicate_1_q\ $end
$var wire 1 d! \R5|q[0]~_Duplicate_1feeder_combout\ $end
$var wire 1 e! \REG_RESET[5]~input_o\ $end
$var wire 1 f! \REG_RESET[5]~inputclkctrl_outclk\ $end
$var wire 1 g! \REG_ENABLE[5]~input_o\ $end
$var wire 1 h! \R5|q[0]~_Duplicate_1_q\ $end
$var wire 1 i! \MUX6WAY0|Mux3~0_combout\ $end
$var wire 1 j! \R2|q[0]~_Duplicate_1feeder_combout\ $end
$var wire 1 k! \REG_RESET[2]~input_o\ $end
$var wire 1 l! \REG_RESET[2]~inputclkctrl_outclk\ $end
$var wire 1 m! \REG_ENABLE[2]~input_o\ $end
$var wire 1 n! \R2|q[0]~_Duplicate_1_q\ $end
$var wire 1 o! \REG_RESET[3]~input_o\ $end
$var wire 1 p! \REG_RESET[3]~inputclkctrl_outclk\ $end
$var wire 1 q! \REG_ENABLE[3]~input_o\ $end
$var wire 1 r! \R3|q[0]~_Duplicate_1_q\ $end
$var wire 1 s! \REG_RESET[0]~input_o\ $end
$var wire 1 t! \REG_RESET[0]~inputclkctrl_outclk\ $end
$var wire 1 u! \REG_ENABLE[0]~input_o\ $end
$var wire 1 v! \R0|q[0]~_Duplicate_1_q\ $end
$var wire 1 w! \R1|q[0]~_Duplicate_1feeder_combout\ $end
$var wire 1 x! \REG_RESET[1]~input_o\ $end
$var wire 1 y! \REG_RESET[1]~inputclkctrl_outclk\ $end
$var wire 1 z! \REG_ENABLE[1]~input_o\ $end
$var wire 1 {! \R1|q[0]~_Duplicate_1_q\ $end
$var wire 1 |! \MUX6WAY0|Mux3~1_combout\ $end
$var wire 1 }! \MUX6WAY0|Mux3~2_combout\ $end
$var wire 1 ~! \MUX6WAY0|Mux3~3_combout\ $end
$var wire 1 !" \SEL_ULA~input_o\ $end
$var wire 1 "" \R4|q[1]~_Duplicate_1_q\ $end
$var wire 1 #" \R5|q[1]~_Duplicate_1feeder_combout\ $end
$var wire 1 $" \R5|q[1]~_Duplicate_1_q\ $end
$var wire 1 %" \MUX6WAY0|Mux2~0_combout\ $end
$var wire 1 &" \R1|q[1]~_Duplicate_1feeder_combout\ $end
$var wire 1 '" \R1|q[1]~_Duplicate_1_q\ $end
$var wire 1 (" \R3|q[1]~_Duplicate_1_q\ $end
$var wire 1 )" \R0|q[1]~_Duplicate_1_q\ $end
$var wire 1 *" \R2|q[1]~_Duplicate_1feeder_combout\ $end
$var wire 1 +" \R2|q[1]~_Duplicate_1_q\ $end
$var wire 1 ," \MUX6WAY0|Mux2~1_combout\ $end
$var wire 1 -" \MUX6WAY0|Mux2~2_combout\ $end
$var wire 1 ." \MUX6WAY0|Mux2~3_combout\ $end
$var wire 1 /" \ULA0|ula_out[1]~0_combout\ $end
$var wire 1 0" \R4|q[2]~_Duplicate_1_q\ $end
$var wire 1 1" \R5|q[2]~_Duplicate_1feeder_combout\ $end
$var wire 1 2" \R5|q[2]~_Duplicate_1_q\ $end
$var wire 1 3" \MUX6WAY0|Mux1~0_combout\ $end
$var wire 1 4" \R0|q[2]~_Duplicate_1_q\ $end
$var wire 1 5" \R1|q[2]~_Duplicate_1feeder_combout\ $end
$var wire 1 6" \R1|q[2]~_Duplicate_1_q\ $end
$var wire 1 7" \MUX6WAY0|Mux1~1_combout\ $end
$var wire 1 8" \R3|q[2]~_Duplicate_1_q\ $end
$var wire 1 9" \R2|q[2]~_Duplicate_1feeder_combout\ $end
$var wire 1 :" \R2|q[2]~_Duplicate_1_q\ $end
$var wire 1 ;" \MUX6WAY0|Mux1~2_combout\ $end
$var wire 1 <" \MUX6WAY0|Mux1~3_combout\ $end
$var wire 1 =" \ULA0|ula_out[2]~1_combout\ $end
$var wire 1 >" \R4|q[3]~_Duplicate_1_q\ $end
$var wire 1 ?" \R5|q[3]~_Duplicate_1feeder_combout\ $end
$var wire 1 @" \R5|q[3]~_Duplicate_1_q\ $end
$var wire 1 A" \MUX6WAY0|Mux0~2_combout\ $end
$var wire 1 B" \R1|q[3]~_Duplicate_1feeder_combout\ $end
$var wire 1 C" \R1|q[3]~_Duplicate_1_q\ $end
$var wire 1 D" \R3|q[3]~_Duplicate_1feeder_combout\ $end
$var wire 1 E" \R3|q[3]~_Duplicate_1_q\ $end
$var wire 1 F" \R0|q[3]~_Duplicate_1_q\ $end
$var wire 1 G" \R2|q[3]~_Duplicate_1feeder_combout\ $end
$var wire 1 H" \R2|q[3]~_Duplicate_1_q\ $end
$var wire 1 I" \MUX6WAY0|Mux0~0_combout\ $end
$var wire 1 J" \MUX6WAY0|Mux0~1_combout\ $end
$var wire 1 K" \ULA0|ula_out[3]~2_combout\ $end
$var wire 1 L" \ULA0|ula_out[3]~3_combout\ $end
$var wire 1 M" \R0|q\ [3] $end
$var wire 1 N" \R0|q\ [2] $end
$var wire 1 O" \R0|q\ [1] $end
$var wire 1 P" \R0|q\ [0] $end
$var wire 1 Q" \R1|q\ [3] $end
$var wire 1 R" \R1|q\ [2] $end
$var wire 1 S" \R1|q\ [1] $end
$var wire 1 T" \R1|q\ [0] $end
$var wire 1 U" \R2|q\ [3] $end
$var wire 1 V" \R2|q\ [2] $end
$var wire 1 W" \R2|q\ [1] $end
$var wire 1 X" \R2|q\ [0] $end
$var wire 1 Y" \R3|q\ [3] $end
$var wire 1 Z" \R3|q\ [2] $end
$var wire 1 [" \R3|q\ [1] $end
$var wire 1 \" \R3|q\ [0] $end
$var wire 1 ]" \R4|q\ [3] $end
$var wire 1 ^" \R4|q\ [2] $end
$var wire 1 _" \R4|q\ [1] $end
$var wire 1 `" \R4|q\ [0] $end
$var wire 1 a" \R5|q\ [3] $end
$var wire 1 b" \R5|q\ [2] $end
$var wire 1 c" \R5|q\ [1] $end
$var wire 1 d" \R5|q\ [0] $end
$var wire 1 e" \ALT_INV_REG_RESET[4]~inputclkctrl_outclk\ $end
$var wire 1 f" \ALT_INV_REG_RESET[3]~inputclkctrl_outclk\ $end
$var wire 1 g" \ALT_INV_REG_RESET[2]~inputclkctrl_outclk\ $end
$var wire 1 h" \ALT_INV_REG_RESET[5]~inputclkctrl_outclk\ $end
$var wire 1 i" \ALT_INV_REG_RESET[1]~inputclkctrl_outclk\ $end
$var wire 1 j" \ALT_INV_REG_RESET[0]~inputclkctrl_outclk\ $end
$upscope $end
$upscope $end
$enddefinitions $end
#0
$dumpvars
0!
0L
0M
1N
xO
1P
1Q
1R
1S
1T
1U
0Y
0f
0@!
0A!
0B!
0C!
0D!
0E!
0F!
0G!
0H!
0I!
0J!
0K!
0L!
0M!
0N!
0O!
0P!
0Q!
0R!
0S!
0T!
0U!
0V!
0W!
0X!
0Y!
0Z!
0[!
0\!
0]!
0^!
0_!
0`!
0a!
1b!
0c!
1d!
0e!
0f!
1g!
0h!
0i!
1j!
0k!
0l!
1m!
0n!
0o!
0p!
1q!
0r!
0s!
0t!
1u!
0v!
1w!
0x!
0y!
1z!
0{!
0|!
0}!
1~!
0!"
0""
0#"
0$"
0%"
0&"
0'"
0("
0)"
0*"
0+"
0,"
0-"
0."
0/"
00"
01"
02"
03"
04"
05"
06"
07"
08"
09"
0:"
0;"
0<"
0="
0>"
0?"
0@"
0A"
0B"
0C"
0D"
0E"
0F"
0G"
0H"
0I"
0J"
0K"
0L"
1e"
1f"
1g"
1h"
1i"
1j"
1=
1>
1?
1@
1A
1B
0C
0D
0E
0F
0G
0H
0I
0J
0K
0%
0&
0'
0(
0)
0*
0+
0,
0-
0.
0/
00
01
02
03
04
05
06
07
08
09
0:
0;
0<
0"
0#
0$
0V
0W
0X
1Z
1[
1\
1]
1^
1_
0`
0a
0b
0c
0d
0e
0g
0h
0i
0j
0k
0l
0m
0n
0o
0p
0q
0r
0s
0t
0u
0v
0w
0x
0y
0z
0{
0|
0}
0~
0!!
0"!
0#!
0M"
0N"
0O"
0P"
0Q"
0R"
0S"
0T"
0U"
0V"
0W"
0X"
0Y"
0Z"
0["
0\"
0]"
0^"
0_"
0`"
0a"
0b"
0c"
0d"
1,!
1-!
1.!
0/!
1<!
1=!
1>!
0?!
10!
11!
12!
03!
14!
15!
16!
07!
18!
19!
1:!
0;!
1$!
1%!
1&!
0'!
1(!
1)!
1*!
0+!
$end
#10000
1!
1f
1[!
1/!
1\!
1c!
1h!
1n!
1r!
1v!
1{!
1P"
1T"
1X"
1\"
1`"
1d"
1|!
1i!
1}!
1T!
1P!
1L!
1H!
1D!
1@!
0~!
1~
1z
1v
1r
1n
1j
1<
18
14
10
1,
1(
0d!
0j!
0w!
1/"
1#"
1&"
1*"
#20000
0!
0f
0[!
0/!
0\!
#30000
1!
1f
1[!
1/!
1\!
0c!
0h!
0n!
0r!
0v!
0{!
0P"
1""
1$"
1'"
1("
1)"
1+"
1O"
0T"
1S"
0X"
1W"
0\"
1["
0`"
1_"
0d"
1c"
1,"
1%"
0|!
0i!
0}!
1-"
1U!
0T!
1Q!
0P!
1M!
0L!
1I!
0H!
1E!
0D!
1A!
0@!
1."
1~!
1}
0~
1y
0z
1u
0v
1q
0r
1m
0n
1i
0j
0<
1;
08
17
04
13
00
1/
0,
1+
0(
1'
1d!
1j!
1w!
#40000
0!
0f
0[!
0/!
0\!
#50000
1!
1f
1[!
1/!
1\!
1c!
1h!
1n!
1r!
1v!
1{!
1P"
1T"
1X"
1\"
1`"
1d"
1|!
1i!
1}!
1T!
1P!
1L!
1H!
1D!
1@!
0~!
1~
1z
1v
1r
1n
1j
1<
18
14
10
1,
1(
0d!
0j!
0w!
0/"
1="
11"
15"
19"
0#"
0&"
0*"
#60000
0!
0f
0[!
0/!
0\!
#70000
1!
1f
1[!
1/!
1\!
0c!
0h!
0n!
0r!
0v!
0{!
0P"
0""
0$"
0'"
0("
0)"
0+"
0O"
10"
12"
14"
16"
18"
1:"
1N"
0T"
0S"
1R"
0X"
0W"
1V"
0\"
0["
1Z"
0`"
0_"
1^"
0d"
0c"
1b"
17"
13"
0,"
0%"
0|!
0i!
0}!
0-"
1;"
1V!
0U!
0T!
1R!
0Q!
0P!
1N!
0M!
0L!
1J!
0I!
0H!
1F!
0E!
0D!
1B!
0A!
0@!
1<"
0."
1~!
1|
0}
0~
1x
0y
0z
1t
0u
0v
1p
0q
0r
1l
0m
0n
1h
0i
0j
0<
0;
1:
08
07
16
04
03
12
00
0/
1.
0,
0+
1*
0(
0'
1&
1d!
1j!
1w!
#80000
0!
0f
0[!
0/!
0\!
#90000
1!
1f
1[!
1/!
1\!
1c!
1h!
1n!
1r!
1v!
1{!
1P"
1T"
1X"
1\"
1`"
1d"
1|!
1i!
1}!
1T!
1P!
1L!
1H!
1D!
1@!
0~!
1~
1z
1v
1r
1n
1j
1<
18
14
10
1,
1(
0d!
0j!
0w!
1/"
1#"
1&"
1*"
#100000
0!
0f
0[!
0/!
0\!
#110000
1!
1f
1[!
1/!
1\!
0c!
0h!
0n!
0r!
0v!
0{!
0P"
1""
1$"
1'"
1("
1)"
1+"
1O"
0T"
1S"
0X"
1W"
0\"
1["
0`"
1_"
0d"
1c"
1,"
1%"
0|!
0i!
0}!
1-"
1U!
0T!
1Q!
0P!
1M!
0L!
1I!
0H!
1E!
0D!
1A!
0@!
1."
1~!
1}
0~
1y
0z
1u
0v
1q
0r
1m
0n
1i
0j
0<
1;
08
17
04
13
00
1/
0,
1+
0(
1'
1d!
1j!
1w!
#120000
0!
0f
0[!
0/!
0\!
#130000
1!
1f
1[!
1/!
1\!
1c!
1h!
1n!
1r!
1v!
1{!
1P"
1T"
1X"
1\"
1`"
1d"
1|!
1i!
1}!
1T!
1P!
1L!
1H!
1D!
1@!
0~!
1~
1z
1v
1r
1n
1j
1<
18
14
10
1,
1(
0d!
0j!
0w!
0/"
0="
1K"
1L"
01"
05"
09"
0#"
0&"
0*"
1?"
1B"
1D"
1G"
#140000
0!
0f
0[!
0/!
0\!
#150000
1!
1f
1[!
1/!
1\!
0c!
0h!
0n!
0r!
0v!
0{!
0P"
0""
0$"
0'"
0("
0)"
0+"
0O"
00"
02"
04"
06"
08"
0:"
0N"
1>"
1@"
1C"
1E"
1F"
1H"
1M"
0T"
0S"
0R"
1Q"
0X"
0W"
0V"
1U"
0\"
0["
0Z"
1Y"
0`"
0_"
0^"
1]"
0d"
0c"
0b"
1a"
1I"
1A"
07"
03"
0,"
0%"
0|!
0i!
0}!
0-"
0;"
1J"
1W!
0V!
0U!
0T!
1S!
0R!
0Q!
0P!
1O!
0N!
0M!
0L!
1K!
0J!
0I!
0H!
1G!
0F!
0E!
0D!
1C!
0B!
0A!
0@!
0L"
0<"
0."
1~!
1{
0|
0}
0~
1w
0x
0y
0z
1s
0t
0u
0v
1o
0p
0q
0r
1k
0l
0m
0n
1g
0h
0i
0j
0<
0;
0:
19
08
07
06
15
04
03
02
11
00
0/
0.
1-
0,
0+
0*
1)
0(
0'
0&
1%
1d!
1j!
1w!
0K"
0?"
0B"
0D"
0G"
1L"
1?"
1B"
1D"
1G"
#160000
0!
0f
0[!
0/!
0\!
#170000
1!
1f
1[!
1/!
1\!
1c!
1h!
1n!
1r!
1v!
1{!
1P"
1T"
1X"
1\"
1`"
1d"
1|!
1i!
1}!
1T!
1P!
1L!
1H!
1D!
1@!
0~!
1~
1z
1v
1r
1n
1j
1<
18
14
10
1,
1(
0d!
0j!
0w!
1/"
1#"
1&"
1*"
#180000
0!
0f
0[!
0/!
0\!
#190000
1!
1f
1[!
1/!
1\!
0c!
0h!
0n!
0r!
0v!
0{!
0P"
1""
1$"
1'"
1("
1)"
1+"
1O"
0T"
1S"
0X"
1W"
0\"
1["
0`"
1_"
0d"
1c"
1,"
1%"
0|!
0i!
0}!
1-"
1U!
0T!
1Q!
0P!
1M!
0L!
1I!
0H!
1E!
0D!
1A!
0@!
1."
1~!
1}
0~
1y
0z
1u
0v
1q
0r
1m
0n
1i
0j
0<
1;
08
17
04
13
00
1/
0,
1+
0(
1'
1d!
1j!
1w!
#200000
0!
0f
0[!
0/!
0\!
#210000
1!
1f
1[!
1/!
1\!
1c!
1h!
1n!
1r!
1v!
1{!
1P"
1T"
1X"
1\"
1`"
1d"
1|!
1i!
1}!
1T!
1P!
1L!
1H!
1D!
1@!
0~!
1~
1z
1v
1r
1n
1j
1<
18
14
10
1,
1(
0d!
0j!
0w!
0/"
1="
11"
15"
19"
0#"
0&"
0*"
#220000
0!
0f
0[!
0/!
0\!
#230000
1!
1f
1[!
1/!
1\!
0c!
0h!
0n!
0r!
0v!
0{!
0P"
0""
0$"
0'"
0("
0)"
0+"
0O"
10"
12"
14"
16"
18"
1:"
1N"
0T"
0S"
1R"
0X"
0W"
1V"
0\"
0["
1Z"
0`"
0_"
1^"
0d"
0c"
1b"
17"
13"
0,"
0%"
0|!
0i!
0}!
0-"
1;"
1V!
0U!
0T!
1R!
0Q!
0P!
1N!
0M!
0L!
1J!
0I!
0H!
1F!
0E!
0D!
1B!
0A!
0@!
1<"
0."
1~!
1|
0}
0~
1x
0y
0z
1t
0u
0v
1p
0q
0r
1l
0m
0n
1h
0i
0j
0<
0;
1:
08
07
16
04
03
12
00
0/
1.
0,
0+
1*
0(
0'
1&
1d!
1j!
1w!
#240000
0!
0f
0[!
0/!
0\!
#250000
1!
1f
1[!
1/!
1\!
1c!
1h!
1n!
1r!
1v!
1{!
1P"
1T"
1X"
1\"
1`"
1d"
1|!
1i!
1}!
1T!
1P!
1L!
1H!
1D!
1@!
0~!
1~
1z
1v
1r
1n
1j
1<
18
14
10
1,
1(
0d!
0j!
0w!
1/"
1#"
1&"
1*"
#260000
0!
0f
0[!
0/!
0\!
#270000
1!
1f
1[!
1/!
1\!
0c!
0h!
0n!
0r!
0v!
0{!
0P"
1""
1$"
1'"
1("
1)"
1+"
1O"
0T"
1S"
0X"
1W"
0\"
1["
0`"
1_"
0d"
1c"
1,"
1%"
0|!
0i!
0}!
1-"
1U!
0T!
1Q!
0P!
1M!
0L!
1I!
0H!
1E!
0D!
1A!
0@!
1."
1~!
1}
0~
1y
0z
1u
0v
1q
0r
1m
0n
1i
0j
0<
1;
08
17
04
13
00
1/
0,
1+
0(
1'
1d!
1j!
1w!
#280000
0!
0f
0[!
0/!
0\!
#290000
1!
1f
1[!
1/!
1\!
1c!
1h!
1n!
1r!
1v!
1{!
1P"
1T"
1X"
1\"
1`"
1d"
1|!
1i!
1}!
1T!
1P!
1L!
1H!
1D!
1@!
0~!
1~
1z
1v
1r
1n
1j
1<
18
14
10
1,
1(
0d!
0j!
0w!
0/"
0="
1K"
0L"
01"
05"
09"
0#"
0&"
0*"
0?"
0B"
0D"
0G"
#300000
0!
0f
0[!
0/!
0\!
#310000
1!
1f
1[!
1/!
1\!
0c!
0h!
0n!
0r!
0v!
0{!
0P"
0""
0$"
0'"
0("
0)"
0+"
0O"
00"
02"
04"
06"
08"
0:"
0N"
0>"
0@"
0C"
0E"
0F"
0H"
0M"
0T"
0S"
0R"
0Q"
0X"
0W"
0V"
0U"
0\"
0["
0Z"
0Y"
0`"
0_"
0^"
0]"
0d"
0c"
0b"
0a"
0I"
0A"
07"
03"
0,"
0%"
0|!
0i!
0}!
0-"
0;"
0J"
0W!
0V!
0U!
0T!
0S!
0R!
0Q!
0P!
0O!
0N!
0M!
0L!
0K!
0J!
0I!
0H!
0G!
0F!
0E!
0D!
0C!
0B!
0A!
0@!
1L"
0<"
0."
1~!
0{
0|
0}
0~
0w
0x
0y
0z
0s
0t
0u
0v
0o
0p
0q
0r
0k
0l
0m
0n
0g
0h
0i
0j
0<
0;
0:
09
08
07
06
05
04
03
02
01
00
0/
0.
0-
0,
0+
0*
0)
0(
0'
0&
0%
1d!
1j!
1w!
0K"
1?"
1B"
1D"
1G"
0L"
0?"
0B"
0D"
0G"
#320000
0!
0f
0[!
0/!
0\!
#330000
1!
1f
1[!
1/!
1\!
1c!
1h!
1n!
1r!
1v!
1{!
1P"
1T"
1X"
1\"
1`"
1d"
1|!
1i!
1}!
1T!
1P!
1L!
1H!
1D!
1@!
0~!
1~
1z
1v
1r
1n
1j
1<
18
14
10
1,
1(
0d!
0j!
0w!
1/"
1#"
1&"
1*"
#340000
0!
0f
0[!
0/!
0\!
#350000
1!
1f
1[!
1/!
1\!
0c!
0h!
0n!
0r!
0v!
0{!
0P"
1""
1$"
1'"
1("
1)"
1+"
1O"
0T"
1S"
0X"
1W"
0\"
1["
0`"
1_"
0d"
1c"
1,"
1%"
0|!
0i!
0}!
1-"
1U!
0T!
1Q!
0P!
1M!
0L!
1I!
0H!
1E!
0D!
1A!
0@!
1."
1~!
1}
0~
1y
0z
1u
0v
1q
0r
1m
0n
1i
0j
0<
1;
08
17
04
13
00
1/
0,
1+
0(
1'
1d!
1j!
1w!
#360000
0!
0f
0[!
0/!
0\!
#370000
1!
1f
1[!
1/!
1\!
1c!
1h!
1n!
1r!
1v!
1{!
1P"
1T"
1X"
1\"
1`"
1d"
1|!
1i!
1}!
1T!
1P!
1L!
1H!
1D!
1@!
0~!
1~
1z
1v
1r
1n
1j
1<
18
14
10
1,
1(
0d!
0j!
0w!
0/"
1="
11"
15"
19"
0#"
0&"
0*"
#380000
0!
0f
0[!
0/!
0\!
#390000
1!
1f
1[!
1/!
1\!
0c!
0h!
0n!
0r!
0v!
0{!
0P"
0""
0$"
0'"
0("
0)"
0+"
0O"
10"
12"
14"
16"
18"
1:"
1N"
0T"
0S"
1R"
0X"
0W"
1V"
0\"
0["
1Z"
0`"
0_"
1^"
0d"
0c"
1b"
17"
13"
0,"
0%"
0|!
0i!
0}!
0-"
1;"
1V!
0U!
0T!
1R!
0Q!
0P!
1N!
0M!
0L!
1J!
0I!
0H!
1F!
0E!
0D!
1B!
0A!
0@!
1<"
0."
1~!
1|
0}
0~
1x
0y
0z
1t
0u
0v
1p
0q
0r
1l
0m
0n
1h
0i
0j
0<
0;
1:
08
07
16
04
03
12
00
0/
1.
0,
0+
1*
0(
0'
1&
1d!
1j!
1w!
#400000
0!
0f
0[!
0/!
0\!
#410000
1!
1f
1[!
1/!
1\!
1c!
1h!
1n!
1r!
1v!
1{!
1P"
1T"
1X"
1\"
1`"
1d"
1|!
1i!
1}!
1T!
1P!
1L!
1H!
1D!
1@!
0~!
1~
1z
1v
1r
1n
1j
1<
18
14
10
1,
1(
0d!
0j!
0w!
1/"
1#"
1&"
1*"
#420000
0!
0f
0[!
0/!
0\!
